{
  "total_results": 8025,
  "page": 1,
  "total_pages": 402,
  "results": [
    {
      "vote_average": 9.3,
      "popularity": 50.91,
      "vote_count": 396,
      "release_date": "2020-11-19",
      "title": "Gabriel's Inferno Part III",
      "adult": false,
      "backdrop_path": "/fQq1FWp1rC89xDrRMuyFJdFUdMd.jpg",
      "genre_ids": [],
      "overview": "The final part of the film adaption of the erotic romance novel Gabriel's Inferno written by an anonymous Canadian author under the pen name Sylvain Reynard.",
      "id": 761053,
      "original_title": "Gabriel's Inferno Part III",
      "poster_path": "/qtX2Fg9MTmrbgN1UUvGoCsImTM8.jpg",
      "original_language": "en",
      "video": false
    },
    {
      "vote_average": 8.9,
      "popularity": 12.784,
      "vote_count": 1004,
      "release_date": "2020-07-31",
      "title": "Gabriel's Inferno Part II",
      "adult": false,
      "backdrop_path": "/jtAI6OJIWLWiRItNSZoWjrsUtmi.jpg",
      "genre_ids": [
        10749
      ],
      "original_language": "en",
      "id": 724089,
      "original_title": "Gabriel's Inferno Part II",
      "poster_path": "/pci1ArYW7oJ2eyTo2NMYEKHHiCP.jpg",
      "overview": "Professor Gabriel Emerson finally learns the truth about Julia Mitchell's identity, but his realization comes a moment too late. Julia is done waiting for the well-respected Dante specialist to remember her and wants nothing more to do with him. Can Gabriel win back her heart before she finds love in another's arms?",
      "video": false
    },
    {
      "vote_average": 8.8,
      "popularity": 14.481,
      "vote_count": 1653,
      "release_date": "2020-05-29",
      "title": "Gabriel's Inferno",
      "adult": false,
      "backdrop_path": "/w2uGvCpMtvRqZg6waC1hvLyZoJa.jpg",
      "genre_ids": [
        10749
      ],
      "overview": "An intriguing and sinful exploration of seduction, forbidden love, and redemption, Gabriel's Inferno is a captivating and wildly passionate tale of one man's escape from his own personal hell as he tries to earn the impossible--forgiveness and love.",
      "id": 696374,
      "original_title": "Gabriel's Inferno",
      "poster_path": "/oyG9TL7FcRP4EZ9Vid6uKzwdndz.jpg",
      "original_language": "en",
      "video": false
    },
    {
      "vote_average": 8.7,
      "popularity": 39.62,
      "vote_count": 17593,
      "release_date": "1994-09-23",
      "title": "The Shawshank Redemption",
      "adult": false,
      "backdrop_path": "/iNh3BivHyg5sQRPP1KOkzguEX0H.jpg",
      "genre_ids": [
        18,
        80
      ],
      "overview": "Framed in the 1940s for the double murder of his wife and her lover, upstanding banker Andy Dufresne begins a new life at the Shawshank prison, where he puts his accounting skills to work for an amoral warden. During his long stretch in prison, Dufresne comes to be admired by the other inmates -- including an older prisoner named Red -- for his integrity and unquenchable sense of hope.",
      "id": 278,
      "original_title": "The Shawshank Redemption",
      "poster_path": "/5KCVkau1HEl7ZzfPsKAPM0sMiKc.jpg",
      "original_language": "en",
      "video": false
    },
    {
      "vote_average": 8.7,
      "popularity": 39.225,
      "overview": "Spanning the years 1945 to 1955, a chronicle of the fictional Italian-American Corleone crime family. When organized crime family patriarch, Vito Corleone barely survives an attempt on his life, his youngest son, Michael steps in to take care of the would-be killers, launching a campaign of bloody revenge.",
      "release_date": "1972-03-14",
      "title": "The Godfather",
      "adult": false,
      "backdrop_path": "/rSPw7tgCH9c6NqICZef4kZjFOQ5.jpg",
      "genre_ids": [
        18,
        80
      ],
      "vote_count": 13298,
      "original_language": "en",
      "original_title": "The Godfather",
      "poster_path": "/3bhkrj58Vtu7enYsRolD1fZdja1.jpg",
      "id": 238,
      "video": false
    },
    {
      "vote_average": 8.7,
      "popularity": 15.594,
      "vote_count": 2433,
      "release_date": "1995-10-20",
      "title": "Dilwale Dulhania Le Jayenge",
      "adult": false,
      "backdrop_path": "/svYzz6A6xleZv5toTLAhigXd1DX.jpg",
      "genre_ids": [
        35,
        18,
        10749
      ],
      "overview": "Raj is a rich, carefree, happy-go-lucky second generation NRI. Simran is the daughter of Chaudhary Baldev Singh, who in spite of being an NRI is very strict about adherence to Indian values. Simran has left for India to be married to her childhood fiancé. Raj leaves for India with a mission at his hands, to claim his lady love under the noses of her whole family. Thus begins a saga.",
      "id": 19404,
      "original_title": "दिलवाले दुल्हनिया ले जायेंगे",
      "poster_path": "/2CAL2433ZeIihfX1Hb2139CX0pW.jpg",
      "original_language": "hi",
      "video": false
    },
    {
      "vote_average": 8.7,
      "popularity": 15.782,
      "vote_count": 262,
      "release_date": "2019-11-01",
      "title": "Dedicated to my ex",
      "adult": false,
      "backdrop_path": "/8g1rUabKleLvovt0Sx6bXgWfC42.jpg",
      "genre_ids": [
        35,
        18
      ],
      "overview": "The film tells the story of Ariel, a 21-year-old who decides to form a rock band to compete for a prize of ten thousand dollars in a musical band contest, this as a last option when trying to get money to save their relationship and reunite with his ex-girlfriend, which breaks due to the trip she must make to Finland for an internship. Ariel with her friend Ortega, decides to make a casting to find the other members of the band, although they do not know nothing about music, thus forming a band with members that have diverse and opposite personalities.",
      "id": 644479,
      "original_title": "Dedicada a mi ex",
      "poster_path": "/riAooJrFvVhotyaOgoI0WR7okSe.jpg",
      "original_language": "es",
      "video": false
    },
    {
      "vote_average": 8.6,
      "popularity": 26.346,
      "vote_count": 10607,
      "release_date": "1993-11-30",
      "title": "Schindler's List",
      "adult": false,
      "backdrop_path": "/loRmRzQXZeqG78TqZuyvSlEQfZb.jpg",
      "genre_ids": [
        18,
        36,
        10752
      ],
      "overview": "The true story of how businessman Oskar Schindler saved over a thousand Jewish lives from the Nazis while they worked as slaves in his factory during World War II.",
      "id": 424,
      "original_title": "Schindler's List",
      "poster_path": "/c8Ass7acuOe4za6DhSattE359gr.jpg",
      "original_language": "en",
      "video": false
    },
    {
      "vote_average": 8.6,
      "popularity": 116.831,
      "overview": "High schoolers Mitsuha and Taki are complete strangers living separate lives. But one night, they suddenly switch places. Mitsuha wakes up in Taki’s body, and he in hers. This bizarre occurrence continues to happen randomly, and the two must adjust their lives around each other.",
      "release_date": "2016-08-26",
      "title": "Your Name.",
      "adult": false,
      "backdrop_path": "/mMtUybQ6hL24FXo0F3Z4j2KG7kZ.jpg",
      "genre_ids": [
        10749,
        16,
        18
      ],
      "id": 372058,
      "original_language": "ja",
      "original_title": "君の名は。",
      "poster_path": "/q719jXXEzOoYaps6babgKnONONX.jpg",
      "vote_count": 6671,
      "video": false
    },
    {
      "vote_average": 8.6,
      "popularity": 33.414,
      "vote_count": 7900,
      "release_date": "1974-12-20",
      "title": "The Godfather: Part II",
      "adult": false,
      "backdrop_path": "/poec6RqOKY9iSiIUmfyfPfiLtvB.jpg",
      "genre_ids": [
        18,
        80
      ],
      "overview": "In the continuing saga of the Corleone crime family, a young Vito Corleone grows up in Sicily and in 1910s New York. In the 1950s, Michael Corleone attempts to expand the family business into Las Vegas, Hollywood and Cuba.",
      "id": 240,
      "original_title": "The Godfather: Part II",
      "poster_path": "/hek3koDUyRQk7FIhPXsa6mT2Zc3.jpg",
      "original_language": "en",
      "video": false
    },
    {
      "vote_average": 8.5,
      "popularity": 55.294,
      "vote_count": 10457,
      "release_date": "2001-07-20",
      "title": "Spirited Away",
      "adult": false,
      "backdrop_path": "/mSDsSDwaP3E7dEfUPWy4J0djt4O.jpg",
      "genre_ids": [
        16,
        10751,
        14
      ],
      "overview": "A young girl, Chihiro, becomes trapped in a strange new world of spirits. When her parents undergo a mysterious transformation, she must call upon the courage she never knew she had to free her family.",
      "id": 129,
      "original_title": "千と千尋の神隠し",
      "poster_path": "/eO4NHOsitcVpRw0kolJRLxXdxa2.jpg",
      "original_language": "ja",
      "video": false
    },
    {
      "vote_average": 8.5,
      "popularity": 107.26,
      "vote_count": 9816,
      "release_date": "2019-05-30",
      "title": "Parasite",
      "adult": false,
      "backdrop_path": "/ApiBzeaa95TNYliSbQ8pJv4Fje7.jpg",
      "genre_ids": [
        35,
        53,
        18
      ],
      "overview": "All unemployed, Ki-taek's family takes peculiar interest in the wealthy and glamorous Parks for their livelihood until they get entangled in an unexpected incident.",
      "id": 496243,
      "original_title": "기생충",
      "poster_path": "/7IiTTgloJzvGI1TAYymCfbfl3vT.jpg",
      "original_language": "ko",
      "video": false
    },
    {
      "vote_average": 8.5,
      "popularity": 288.496,
      "vote_count": 488,
      "release_date": "2019-12-20",
      "title": "My Hero Academia: Heroes Rising",
      "adult": false,
      "backdrop_path": "/9guoVF7zayiiUq5ulKQpt375VIy.jpg",
      "genre_ids": [
        16,
        28,
        35,
        14,
        12
      ],
      "overview": "Class 1-A visits Nabu Island where they finally get to do some real hero work. The place is so peaceful that it's more like a vacation … until they're attacked by a villain with an unfathomable Quirk! His power is eerily familiar, and it looks like Shigaraki had a hand in the plan. But with All Might retired and citizens' lives on the line, there's no time for questions. Deku and his friends are the next generation of heroes, and they're the island's only hope.",
      "original_language": "ja",
      "original_title": "僕のヒーローアカデミア THE MOVIE ヒーローズ：ライジング",
      "poster_path": "/zGVbrulkupqpbwgiNedkJPyQum4.jpg",
      "id": 592350,
      "video": false
    },
    {
      "vote_average": 8.5,
      "popularity": 31.975,
      "vote_count": 11275,
      "release_date": "1999-12-10",
      "title": "The Green Mile",
      "adult": false,
      "backdrop_path": "/5Nz25DPXfQaSpDgce42Y3kFg9G4.jpg",
      "genre_ids": [
        14,
        18,
        80
      ],
      "overview": "A supernatural tale set on death row in a Southern prison, where gentle giant John Coffey possesses the mysterious power to heal people's ailments. When the cell block's head guard, Paul Edgecomb, recognizes Coffey's miraculous gift, he tries desperately to help stave off the condemned man's execution.",
      "id": 497,
      "original_title": "The Green Mile",
      "poster_path": "/velWPhVMQeQKcxggNEU8YmIo52R.jpg",
      "original_language": "en",
      "video": false
    },
    {
      "vote_average": 8.5,
      "popularity": 179.875,
      "vote_count": 394,
      "release_date": "2020-10-09",
      "title": "Clouds",
      "adult": false,
      "backdrop_path": "/bx326cwBtDsfDcnTgFlK5dXkyaC.jpg",
      "genre_ids": [
        10402,
        18,
        10749
      ],
      "original_language": "en",
      "id": 630566,
      "original_title": "Clouds",
      "poster_path": "/2YvT3pdGngzpbAuxamTz4ZlabnT.jpg",
      "overview": "Young musician Zach Sobiech discovers his cancer has spread, leaving him just a few months to live. With limited time, he follows his dream and makes an album, unaware that it will soon be a viral music phenomenon.",
      "video": false
    },
    {
      "vote_average": 8.5,
      "popularity": 7.423,
      "vote_count": 284,
      "release_date": "1974-12-21",
      "title": "We All Loved Each Other So Much",
      "adult": false,
      "backdrop_path": "/bh6yfB6I1N1WuMiX6K5HxGVZnja.jpg",
      "genre_ids": [
        35,
        18
      ],
      "overview": "Gianni, Nicola and Antonio become close friends in 1944 while fighting the Nazis. After the end of the war, full of illusions, they settle down. The movie is a the story of the life of these three idealists and how they deal with the inevitable disillusionments of life.",
      "id": 42269,
      "original_title": "C'eravamo tanto amati",
      "poster_path": "/zGGWYpiKNwjpKxelPxOMqJnUgDs.jpg",
      "original_language": "it",
      "video": false
    },
    {
      "vote_average": 8.5,
      "popularity": 42.544,
      "overview": "A burger-loving hit man, his philosophical partner, a drug-addled gangster's moll and a washed-up boxer converge in this sprawling, comedic crime caper. Their adventures unfurl in three stories that ingeniously trip back and forth in time.",
      "release_date": "1994-09-10",
      "title": "Pulp Fiction",
      "adult": false,
      "backdrop_path": "/w7RDIgQM6bLT7JXtH4iUQd3Iwxm.jpg",
      "genre_ids": [
        53,
        80
      ],
      "id": 680,
      "original_language": "en",
      "original_title": "Pulp Fiction",
      "poster_path": "/dRZpdpKLgN9nk57zggJCs1TjJb4.jpg",
      "vote_count": 19957,
      "video": false
    },
    {
      "vote_average": 8.5,
      "popularity": 33.367,
      "vote_count": 9514,
      "release_date": "1997-12-20",
      "title": "Life Is Beautiful",
      "adult": false,
      "backdrop_path": "/6aNKD81RHR1DqUUa8kOZ1TBY1Lp.jpg",
      "genre_ids": [
        35,
        18
      ],
      "overview": "A touching story of an Italian book seller of Jewish ancestry who lives in his own little fairy tale. His creative and happy life would come to an abrupt halt when his entire family is deported to a concentration camp during World War II. While locked up he tries to convince his son that the whole thing is just a game.",
      "id": 637,
      "original_title": "La vita è bella",
      "poster_path": "/74hLDKjD5aGYOotO6esUVaeISa2.jpg",
      "original_language": "it",
      "video": false
    },
    {
      "vote_average": 8.5,
      "popularity": 50.528,
      "vote_count": 16598,
      "release_date": "2003-12-01",
      "title": "The Lord of the Rings: The Return of the King",
      "adult": false,
      "backdrop_path": "/9DeGfFIqjph5CBFVQrD6wv9S7rR.jpg",
      "genre_ids": [
        12,
        14,
        28
      ],
      "original_language": "en",
      "id": 122,
      "original_title": "The Lord of the Rings: The Return of the King",
      "poster_path": "/rCzpDGLbOoPwLjy3OAm5NUPOTrC.jpg",
      "overview": "Aragorn is revealed as the heir to the ancient kings as he, Gandalf and the other members of the broken fellowship struggle to save Gondor from Sauron's forces. Meanwhile, Frodo and Sam take the ring closer to the heart of Mordor, the dark lord's realm.",
      "video": false
    },
    {
      "vote_average": 8.5,
      "popularity": 47.202,
      "vote_count": 19294,
      "release_date": "1994-07-06",
      "title": "Forrest Gump",
      "adult": false,
      "backdrop_path": "/7c9UVPPiTPltouxRVY6N9uugaVA.jpg",
      "genre_ids": [
        35,
        18,
        10749
      ],
      "overview": "A man with a low IQ has accomplished great things in his life and been present during significant historic events—in each case, far exceeding what anyone imagined he could do. But despite all he has achieved, his one true love eludes him.",
      "id": 13,
      "original_title": "Forrest Gump",
      "poster_path": "/clolk7rB5lAjs41SD0Vt6IXYLMm.jpg",
      "original_language": "en",
      "video": false
    }
  ]
}